AGUILERA	VASQUEZ	RODRIGO	2.0	3.0	4.0	2.0	3.0	4.0	1.0	2.0	1.0	 2.9
ARANCIBIA	TAPIA	RICARDO	2.0	1.0	2.0	2.0	3.0	4.0	5.0	6.0	1.0	 2.2
CALABRIANOPÉREZ	PÉREZ	MITCHEL	3.0	1.0	2.0	2.0	3.0	4.0	5.0	1.0	2.0	 2.2
CÁRDENAS	OSORIO	MAURICIO	4.0	3.0	2.0	3.0	6.0	5.0	7.0	6.0	5.0	 3.6
CASTILLO	MUÑOZ	JUAN	3.0	7.0	1.0	5.0	6.0	7.0	6.0	5.0	4.0	 4.0
CASTILLO	MUÑOZ	LEONARDO	4.0	3.0	2.0	2.0	3.0	4.0	5.0	6.0	5.0	 3.2
ESPINOZA	MIERES	IAM	2.0	3.0	4.0	6.0	5.0	4.0	3.0	2.0	1.0	 3.2
GONZÁLEZ	LABRADOR	FELIPE	3.0	4.0	5.0	5.0	4.0	3.0	2.0	1.0	2.0	 3.8
GUZMÁN	HEVIA	FELIPE	2.0	3.0	4.0	6.0	7.0	6.0	5.0	4.0	3.0	 3.8
HERRERA	HERRERA	FELIPE	1.0	2.0	3.0	5.0	6.0	5.0	4.0	3.0	2.0	 2.8
LUNA	HERNÁNDEZEDUARDO	EDUARDO	2.0	1.0	6.0	4.0	5.0	6.0	5.0	4.0	3.0	 3.8
MUÑOZ	GARRIDO	DYLAN	4.0	3.0	4.0	2.0	3.0	4.0	5.0	6.0	5.0	 3.9
NAVEA	GALARCE	DANIEL	5.0	4.0	1.0	5.0	6.0	5.0	4.0	3.0	4.0	 3.4
PÉREZ	CUETO	CRISTÓBAL	1.0	3.0	3.0	1.0	1.0	1.0	1.0	1.0	2.0	 2.1
